Tidyverse con R
…
---
layout: false
class: inverse

# ¿Notan algo raro?

```
## # A tibble: 279,718 x 10
##    ID_REGISTRO ORIGEN SECTOR ENTIDAD_UM SEXO  FECHA_INGRESO FECHA_SINTOMAS FECHA_DEF  INTUBADO
##    <chr>       <chr>  <chr>  <chr>      <chr> <date>        <date>         <date>     <chr>   
##  1 0aa0bc      1      4      17         1     2021-01-04    2020-07-22     NA         2       
##  2 2b8eb2      1      4      25         2     2020-12-28    2020-12-24     NA         97      
##  3 30f293      1      4      14         2     2020-12-28    2020-12-25     NA         97      
##  4 289a00      1      4      14         1     2020-12-28    2020-12-27     2021-01-01 2       
##  5 3a40a4      2      4      30         2     2020-12-28    2020-12-25     NA         97      
##  6 45cc62      1      12     19         1     2020-12-28    2020-12-24     NA         2       
##  7 31a44e      1      12     19         1     2020-12-31    2020-12-26     NA         97      
##  8 3291de      1      12     32         2     2021-01-02    2020-12-27     NA         97      
##  9 27a26a      1      4      24         1     2021-01-01    2020-12-19     NA         2       
## 10 404208      1      4      23         1     2021-01-02    2020-12-26     NA         97      
## # … with 279,708 more rows, and 1 more variable: CLASIFICACION_FINAL <chr>
```
…
.panel[.panel-name[Datos pulcros]

```
## # A tibble: 24,092 x 5
##    artist track                   date.entered week   rank
##    <chr>  <chr>                   <date>       <chr> <dbl>
##  1 2 Pac  Baby Don't Cry (Keep... 2000-02-26   wk1      87
##  2 2 Pac  Baby Don't Cry (Keep... 2000-02-26   wk2      82
##  3 2 Pac  Baby Don't Cry (Keep... 2000-02-26   wk3      72
##  4 2 Pac  Baby Don't Cry (Keep... 2000-02-26   wk4      77
##  5 2 Pac  Baby Don't Cry (Keep... 2000-02-26   wk5      87
##  6 2 Pac  Baby Don't Cry (Keep... 2000-02-26   wk6      94
##  7 2 Pac  Baby Don't Cry (Keep... 2000-02-26   wk7      99
##  8 2 Pac  Baby Don't Cry (Keep... 2000-02-26   wk8      NA
##  9 2 Pac  Baby Don't Cry (Keep... 2000-02-26   wk9      NA
## 10 2 Pac  Baby Don't Cry (Keep... 2000-02-26   wk10     NA
## # … with 24,082 more rows
```
…
Ingresamos los datos como primer parámetro y damos la condición del filtro. 

```r
filter(evol_covid_comb, Estadistica == "Defunciones")
```

Podríamos asignar el resultado a un nuevo *tibble* llamado **evol_covid_def**.

]

.panel[.panel-name[evol_covid_def]

```
## # A tibble: 45 x 5
##        n n_acum Sem_x Registros          Estadistica
##    <dbl>  <dbl> <dbl> <chr>              <chr>      
##  1  2902  79604    37 Registros estables Defunciones
##  2   672   1254    16 Registros estables Defunciones
##  3  1896   4444    18 Registros estables Defunciones
##  4  2612  82216    38 Registros estables Defunciones
##  5  4026  66462    33 Registros estables Defunciones
##  6     4      6    12 Registros estables Defunciones
##  7  4410  24876    24 Registros estables Defunciones
##  8    38     44    13 Registros estables Defunciones
##  9  4545  38142    27 Registros estables Defunciones
## 10  4519  62436    32 Registros estables Defunciones
## # … with 35 more rows
```
…
Si quisiéramos ordenar de manera descendente, agregamos la cláusula **desc()**

```r
arrange(evol_covid_def, desc(Sem_x))
```

]

.panel[.panel-name[Resultado ascendente]

```
## # A tibble: 45 x 5
##        n n_acum Sem_x Registros          Estadistica
##    <dbl>  <dbl> <dbl> <chr>              <chr>      
##  1     1      1    10 Registros estables Defunciones
##  2     1      2    11 Registros estables Defunciones
##  3     4      6    12 Registros estables Defunciones
##  4    38     44    13 Registros estables Defunciones
##  5   156    200    14 Registros estables Defunciones
##  6   382    582    15 Registros estables Defunciones
##  7   672   1254    16 Registros estables Defunciones
##  8  1294   2548    17 Registros estables Defunciones
##  9  1896   4444    18 Registros estables Defunciones
## 10  2283   6727    19 Registros estables Defunciones
## # … with 35 more rows
```

]

.panel[.panel-name[Resultado descendente]

```
## # A tibble: 45 x 5
##        n n_acum Sem_x Registros                 Estadistica
##    <dbl>  <dbl> <dbl> <chr>                     <chr>      
##  1  2330 132069    54 Registros en construcción Defunciones
##  2  4389 129739    53 Registros preliminares    Defunciones
##  3  4164 125350    52 Registros preliminares    Defunciones
##  4  4033 121186    51 Registros estables        Defunciones
##  5  3785 117153    50 Registros estables        Defunciones
##  6  3611 113368    49 Registros estables        Defunciones
##  7  3416 109757    48 Registros estables        Defunciones
##  8  3046 106341    47 Registros estables        Defunciones
##  9  2939 103295    46 Registros estables        Defunciones
## 10  2967 100356    45 Registros estables        Defunciones
## # … with 35 more rows
```
…
Si quisiéramos *deseleccionar*, agregamos el prefijo **-**

```r
select(evol_covid_def,-n_acum,-Registros)
```

]

.panel[.panel-name[Resultado]

```
## # A tibble: 45 x 3
##    Estadistica Sem_x     n
##    <chr>       <dbl> <dbl>
##  1 Defunciones    37  2902
##  2 Defunciones    16   672
##  3 Defunciones    18  1896
##  4 Defunciones    38  2612
##  5 Defunciones    33  4026
##  6 Defunciones    12     4
##  7 Defunciones    24  4410
##  8 Defunciones    13    38
##  9 Defunciones    27  4545
## 10 Defunciones    32  4519
## # … with 35 more rows
```

]

.panel[.panel-name[Deseleccionando]

```
## # A tibble: 45 x 3
##        n Sem_x Estadistica
##    <dbl> <dbl> <chr>      
##  1  2902    37 Defunciones
##  2   672    16 Defunciones
##  3  1896    18 Defunciones
##  4  2612    38 Defunciones
##  5  4026    33 Defunciones
##  6     4    12 Defunciones
##  7  4410    24 Defunciones
##  8    38    13 Defunciones
##  9  4545    27 Defunciones
## 10  4519    32 Defunciones
## # … with 35 more rows
```
…
---

.panelset[

.panel[.panel-name[Función]

Ingresamos los datos como primer parámetro y damos la variable de agrupación. 

```r
evol_covid_agrupado <- group_by(evol_covid_comb,Estadistica)
evol_covid_agrupado
```

```
## # A tibble: 97 x 5
## # Groups:   Estadistica [2]
##        n  n_acum Sem_x Registros              Estadistica
##    <dbl>   <dbl> <dbl> <chr>                  <chr>      
##  1 43080  300771    27 Registros estables     Casos      
##  2  2902   79604    37 Registros estables     Defunciones
##  3   672    1254    16 Registros estables     Defunciones
##  4 49970  395105    29 Registros estables     Casos      
##  5  1896    4444    18 Registros estables     Defunciones
##  6 54990 1414212    52 Registros preliminares Casos      
##  7  2612   82216    38 Registros estables     Defunciones
##  8 57058 1471270    53 Registros preliminares Casos      
##  9  8990   22426    17 Registros estables     Casos      
## 10   185     212    11 Registros estables     Casos      
## # … with 87 more rows
```
…
]

.panel[.panel-name[Crear variable]

```r
mutate(evol_covid_agrupado, 
       Max = max(n),
       Promedio = mean(n))
```

```
## # A tibble: 97 x 7
## # Groups:   Estadistica [2]
##        n  n_acum Sem_x Registros              Estadistica   Max Promedio
##    <dbl>   <dbl> <dbl> <chr>                  <chr>       <dbl>    <dbl>
##  1 43080  300771    27 Registros estables     Casos       71105   28999.
##  2  2902   79604    37 Registros estables     Defunciones  5049    2935.
##  3   672    1254    16 Registros estables     Defunciones  5049    2935.
##  4 49970  395105    29 Registros estables     Casos       71105   28999.
##  5  1896    4444    18 Registros estables     Defunciones  5049    2935.
##  6 54990 1414212    52 Registros preliminares Casos       71105   28999.
##  7  2612   82216    38 Registros estables     Defunciones  5049    2935.
##  8 57058 1471270    53 Registros preliminares Casos       71105   28999.
##  9  8990   22426    17 Registros estables     Casos       71105   28999.
## 10   185     212    11 Registros estables     Casos       71105   28999.
## # … with 87 more rows
```
…
.panel[.panel-name[Resultado]

```
## `summarise()` regrouping output by 'ENTIDAD_UM', 'SEXO' (override with `.groups` argument)
```

```
## # A tibble: 127 x 4
## # Groups:   ENTIDAD_UM, SEXO [64]
##    ENTIDAD_UM SEXO  COVID        X
##    <chr>      <chr> <chr>    <int>
##  1 01         F     Negativo     9
##  2 01         F     Positivo     9
##  3 01         M     Negativo    15
##  4 01         M     Positivo    12
##  5 02         F     Negativo    36
##  6 02         F     Positivo    76
##  7 02         M     Negativo    47
##  8 02         M     Positivo   123
##  9 03         F     Positivo     4
## 10 03         M     Negativo     4
## # … with 117 more rows
```
…
